<?xml version="1.0" encoding="UTF-8" standalone="no"?>
<!-- Created with Inkscape (http://www.inkscape.org/) -->

<svg
   xmlns:dc="http://purl.org/dc/elements/1.1/"
   xmlns:cc="http://creativecommons.org/ns#"
   xmlns:rdf="http://www.w3.org/1999/02/22-rdf-syntax-ns#"
   xmlns:svg="http://www.w3.org/2000/svg"
   xmlns="http://www.w3.org/2000/svg"
   xmlns:xlink="http://www.w3.org/1999/xlink"
   xmlns:sodipodi="http://sodipodi.sourceforge.net/DTD/sodipodi-0.dtd"
   xmlns:inkscape="http://www.inkscape.org/namespaces/inkscape"
   width="440"
   height="440"
   id="svg2"
   version="1.1"
   inkscape:version="0.48.3.1 r9886"
   sodipodi:docname="logo.svg"
   inkscape:export-xdpi="6.1399999"
   inkscape:export-ydpi="6.1399999">
  <defs
     id="defs4">
    <linearGradient
       id="linearGradient5525">
      <stop
         style="stop-color:#049cdb;stop-opacity:0.39215687;"
         offset="0"
         id="stop5527" />
      <stop
         style="stop-color:#049cdb;stop-opacity:1;"
         offset="1"
         id="stop5529" />
    </linearGradient>
    <linearGradient
       id="linearGradient5517">
      <stop
         style="stop-color:#f89406;stop-opacity:0.39215687;"
         offset="0"
         id="stop5519" />
      <stop
         style="stop-color:#f89406;stop-opacity:1;"
         offset="1"
         id="stop5521" />
    </linearGradient>
    <linearGradient
       id="linearGradient5381">
      <stop
         style="stop-color:#46a546;stop-opacity:1;"
         offset="0"
         id="stop5383" />
      <stop
         style="stop-color:#46a546;stop-opacity:0.39215687;"
         offset="1"
         id="stop5385" />
    </linearGradient>
    <linearGradient
       id="linearGradient5274">
      <stop
         style="stop-color:#ff7400;stop-opacity:1;"
         offset="0"
         id="stop5276" />
      <stop
         style="stop-color:#ff7400;stop-opacity:0;"
         offset="1"
         id="stop5278" />
    </linearGradient>
    <linearGradient
       inkscape:collect="always"
       xlink:href="#linearGradient5381"
       id="linearGradient5387"
       x1="550"
       y1="532.36218"
       x2="400"
       y2="532.36218"
       gradientUnits="userSpaceOnUse" />
    <radialGradient
       inkscape:collect="always"
       xlink:href="#linearGradient5517"
       id="radialGradient5523"
       cx="370"
       cy="542.36304"
       fx="370"
       fy="542.36304"
       r="156.7188"
       gradientTransform="matrix(0,1.0528412,-1.0683898,2.3810364e-6,949.45514,152.80964)"
       gradientUnits="userSpaceOnUse" />
    <radialGradient
       inkscape:collect="always"
       xlink:href="#linearGradient5525"
       id="radialGradient5531"
       cx="375"
       cy="523.92822"
       fx="375"
       fy="523.92822"
       r="78.238953"
       gradientTransform="matrix(1.1503221,-1.7893901,0.95640962,0.61483933,-557.46079,881.25181)"
       gradientUnits="userSpaceOnUse" />
  </defs>
  <sodipodi:namedview
     id="base"
     pagecolor="#ffffff"
     bordercolor="#666666"
     borderopacity="1.0"
     inkscape:pageopacity="0.0"
     inkscape:pageshadow="2"
     inkscape:zoom="1.3798947"
     inkscape:cx="221.79593"
     inkscape:cy="219.23324"
     inkscape:document-units="px"
     inkscape:current-layer="layer4"
     showgrid="false"
     inkscape:snap-global="true"
     inkscape:window-width="1366"
     inkscape:window-height="681"
     inkscape:window-x="0"
     inkscape:window-y="27"
     inkscape:window-maximized="1"
     fit-margin-top="1"
     fit-margin-left="1"
     fit-margin-right="1"
     fit-margin-bottom="1"
     units="px">
    <inkscape:grid
       type="xygrid"
       id="grid2989"
       empspacing="5"
       visible="true"
       enabled="true"
       snapvisiblegridlinesonly="true"
       originx="-167.1168px"
       originy="-307.11659px" />
  </sodipodi:namedview>
  <metadata
     id="metadata7">
    <rdf:RDF>
      <cc:Work
         rdf:about="">
        <dc:format>image/svg+xml</dc:format>
        <dc:type
           rdf:resource="http://purl.org/dc/dcmitype/StillImage" />
        <dc:title />
      </cc:Work>
    </rdf:RDF>
  </metadata>
  <g
     inkscape:label="Cam 3"
     inkscape:groupmode="layer"
     id="layer1"
     style="display:inline"
     transform="translate(-167.1168,-305.24538)" />
  <g
     inkscape:groupmode="layer"
     id="layer2"
     inkscape:label="Cam 2"
     style="display:inline"
     transform="translate(-167.1168,-305.24538)" />
  <g
     inkscape:groupmode="layer"
     id="layer3"
     inkscape:label="Cam 1"
     style="display:inline"
     transform="translate(-167.1168,-305.24538)" />
  <g
     inkscape:groupmode="layer"
     id="layer4"
     inkscape:label="€"
     style="display:inline"
     transform="translate(-167.1168,-305.24538)">
    <g
       id="g3029"
       transform="translate(3.9488358,-1.3634045)"
       style="opacity:1">
      <path
         inkscape:connector-curvature="0"
         id="path2991"
         d="m 538.56406,452.36218 c 26.11275,44.47128 28.4924,101.70812 6.1754,148.19808 -2.94355,3.42208 -4.01245,15.12653 -9.72471,9.75273 C 490.00983,584.32939 445.00492,558.34578 400,532.36218 c 46.18802,-26.66667 92.37604,-53.33333 138.56406,-80 z"
         style="fill:url(#linearGradient5387);fill-opacity:1;fill-rule:evenodd;stroke:none;display:inline" />
      <path
         transform="translate(20,-30)"
         sodipodi:end="5.7595865"
         sodipodi:start="4.712389"
         d="m 370,382.36218 c 57.16249,0 109.98281,30.49583 138.56406,80 l -138.56406,80 z"
         sodipodi:ry="160"
         sodipodi:rx="160"
         sodipodi:cy="542.36218"
         sodipodi:cx="370"
         id="path2991-3"
         style="fill:url(#radialGradient5531);fill-opacity:1;fill-rule:evenodd;stroke:none;display:inline"
         sodipodi:type="arc" />
      <path
         sodipodi:end="4.712389"
         sodipodi:start="0.52359878"
         d="M 508.56406,622.36218 C 464.38128,698.889 366.52682,725.10903 290,680.92625 213.47318,636.74347 187.25316,538.889 231.43594,462.36218 c 28.58124,-49.50417 81.40157,-80 138.56406,-80 l 0,160 z"
         sodipodi:ry="160"
         sodipodi:rx="160"
         sodipodi:cy="542.36218"
         sodipodi:cx="370"
         id="path2991-5"
         style="fill:url(#radialGradient5523);fill-opacity:1;fill-rule:evenodd;stroke:none;display:inline"
         sodipodi:type="arc" />
      <text
         sodipodi:linespacing="125%"
         id="text5302"
         y="652.36218"
         x="260"
         style="font-size:300px;font-style:normal;font-weight:bold;line-height:125%;letter-spacing:0px;word-spacing:0px;fill:#000000;fill-opacity:1;stroke:none;font-family:Sans;-inkscape-font-specification:Sans Bold"
         xml:space="preserve"><tspan
           y="652.36218"
           x="260"
           id="tspan5304"
           sodipodi:role="line">€</tspan></text>
    </g>
  </g>
</svg>
